%YAML 1.1
%TAG !u! tag:unity3d.com,2011:
--- !u!1 &8600404098409868757
GameObject:
  m_ObjectHideFlags: 0
  m_CorrespondingSourceObject: {fileID: 0}
  m_PrefabInstance: {fileID: 0}
  m_PrefabAsset: {fileID: 0}
  serializedVersion: 6
  m_Component:
  - component: {fileID: 4355434923775939751}
  - component: {fileID: 2565648461713214360}
  m_Layer: 0
  m_Name: Coordinate
  m_TagString: Untagged
  m_Icon: {fileID: 0}
  m_NavMeshLayer: 0
  m_StaticEditorFlags: 0
  m_IsActive: 1
--- !u!4 &4355434923775939751
Transform:
  m_ObjectHideFlags: 0
  m_CorrespondingSourceObject: {fileID: 0}
  m_PrefabInstance: {fileID: 0}
  m_PrefabAsset: {fileID: 0}
  m_GameObject: {fileID: 8600404098409868757}
  m_LocalRotation: {x: 0, y: 0, z: 0, w: 1}
  m_LocalPosition: {x: 0.32914498, y: -0.12842321, z: -0.15319717}
  m_LocalScale: {x: 1, y: 1, z: 1}
  m_Children: []
  m_Father: {fileID: 0}
  m_RootOrder: 0
  m_LocalEulerAnglesHint: {x: 0, y: 0, z: 0}
--- !u!114 &2565648461713214360
MonoBehaviour:
  m_ObjectHideFlags: 0
  m_CorrespondingSourceObject: {fileID: 0}
  m_PrefabInstance: {fileID: 0}
  m_PrefabAsset: {fileID: 0}
  m_GameObject: {fileID: 8600404098409868757}
  m_Enabled: 1
  m_EditorHideFlags: 0
  m_Script: {fileID: 11500000, guid: 86968eb5397f9e44ba156339401d863f, type: 3}
  m_Name: 
  m_EditorClassIdentifier: 
  PersonPrefab: {fileID: 463156660756611729, guid: f7ca523e5850aea46977e7b4896316a1,
    type: 3}
  PersonLightEstimatedMaterial: {fileID: 2100000, guid: 0ece12ed8c8bbf746a39fe9c805994ac,
    type: 2}
  PersonDefaultMaterial: {fileID: 2100000, guid: d43b6d6c10d816949ad193de04447128,
    type: 2}
  CurrentTargetPrefab: {fileID: 100000, guid: a84ee1b431b620344b6aff9574e5f8c0, type: 3}
  CurrentTargetLightEstimatedMaterial: {fileID: 2100000, guid: 5b7132e60b3153d40adf7763bb03ca02,
    type: 2}
  CurrentTargetDefaultMaterial: {fileID: 2100000, guid: c6d58bd0e586b8c4191497adbc042be9,
    type: 2}
  NextTargetPrefab: {fileID: 6786036254343580342, guid: b584abd9baf5d6e459f7f6a4503ba10f,
    type: 3}
  NextTargetLightEstimatedMaterial: {fileID: 2100000, guid: 581b7df6e1d6d8743bcbfaeab676df58,
    type: 2}
  NextTargetDefaultMaterial: {fileID: 2100000, guid: af195c1adb091ef4187c8a7e97eca897,
    type: 2}
